[ {
  "uid" : "948b1b82b712fb18",
  "name" : "Verify that First move to pending section than selct any slot time thanafter select any customer then click on Done with Remark button and click on other button and enter text thanafter click on done button",
  "time" : {
    "start" : 1621166257725,
    "stop" : 1621166291053,
    "duration" : 33328
  },
  "status" : "passed",
  "severity" : "blocker"
}, {
  "uid" : "b6f83d593ee2856e",
  "name" : "to validate that Will Pay By App functionality",
  "time" : {
    "start" : 1621166736743,
    "stop" : 1621166789388,
    "duration" : 52645
  },
  "status" : "passed",
  "severity" : "blocker"
}, {
  "uid" : "4ec46de901ddd3eb",
  "name" : "verify that first click on drawer icon thanafter click on penalty button",
  "time" : {
    "start" : 1621166006506,
    "stop" : 1621166028446,
    "duration" : 21940
  },
  "status" : "passed",
  "severity" : "blocker"
}, {
  "uid" : "5405974f46eeff70",
  "name" : "to validate that Documents pages link only",
  "time" : {
    "start" : 1621166090331,
    "stop" : 1621166109769,
    "duration" : 19438
  },
  "status" : "passed",
  "severity" : "blocker"
}, {
  "uid" : "c03b3d336dfa471f",
  "name" : "verify that First move to pending section than selct any slot time thanafter select any customer then finally click on Done button",
  "time" : {
    "start" : 1621166152116,
    "stop" : 1621166172941,
    "duration" : 20825
  },
  "status" : "passed",
  "severity" : "blocker"
}, {
  "uid" : "1111ec42d42f758",
  "name" : "to validate that Cheque with Quality Issue functionality",
  "time" : {
    "start" : 1621166554088,
    "stop" : 1621166622472,
    "duration" : 68384
  },
  "status" : "passed",
  "severity" : "blocker"
}, {
  "uid" : "89e7e0364e47a776",
  "name" : "to validate that cheque with call To Customer functionality",
  "time" : {
    "start" : 1621166633412,
    "stop" : 1621166683768,
    "duration" : 50356
  },
  "status" : "passed",
  "severity" : "blocker"
}, {
  "uid" : "8a0e37ac1dbd7cd1",
  "name" : "Verify that First move to pending section than selct any slot time thanafter select any customer then click on Not Delivered button again click on customer side button than click on hold button again click on Hold Today only button finally click on Done button",
  "time" : {
    "start" : 1621166302190,
    "stop" : 1621166330039,
    "duration" : 27849
  },
  "status" : "passed",
  "severity" : "blocker"
}, {
  "uid" : "418a3def28ea9585",
  "name" : "to validate that Cash with Billing Issue functionality",
  "time" : {
    "start" : 1621166506533,
    "stop" : 1621166543188,
    "duration" : 36655
  },
  "status" : "passed",
  "severity" : "blocker"
}, {
  "uid" : "3fe5d4af1e9284c3",
  "name" : "verify that First move to pending section than selct any slot time thanafter select any customer then click on Done with Remark button then finally click on done button",
  "time" : {
    "start" : 1621166183964,
    "stop" : 1621166209231,
    "duration" : 25267
  },
  "status" : "passed",
  "severity" : "blocker"
}, {
  "uid" : "d457f75ba3791661",
  "name" : "Verify that First move to pending section than selct any slot time thanafter select any customer then click on Not Delivered button again click on our side button than click on milk leakage button and again enter remark text than finally click on done button",
  "time" : {
    "start" : 1621166436565,
    "stop" : 1621166461326,
    "duration" : 24761
  },
  "status" : "passed",
  "severity" : "blocker"
}, {
  "uid" : "8bd9eb9f426cd1cc",
  "name" : "verify that first click on randomly any radio button thenafter search any customer with customer Name",
  "time" : {
    "start" : 1621166910115,
    "stop" : 1621166925891,
    "duration" : 15776
  },
  "status" : "passed",
  "severity" : "blocker"
}, {
  "uid" : "4b3b40658d0dfe99",
  "name" : "Verify that First move to pending section than selct any slot time thanafter select any customer then click on Not Delivered button again click on customer side button than click on house locked button and again enter remark text than finally click on done button",
  "time" : {
    "start" : 1621166341086,
    "stop" : 1621166373296,
    "duration" : 32210
  },
  "status" : "passed",
  "severity" : "blocker"
}, {
  "uid" : "f5125435811292eb",
  "name" : "verify that first click on randomly any radio button thenafter search any customer with customer Id",
  "time" : {
    "start" : 1621166885089,
    "stop" : 1621166899945,
    "duration" : 14856
  },
  "status" : "passed",
  "severity" : "blocker"
}, {
  "uid" : "f4d82415843619",
  "name" : "to validate that House Locked functionality",
  "time" : {
    "start" : 1621166800280,
    "stop" : 1621166829626,
    "duration" : 29346
  },
  "status" : "passed",
  "severity" : "blocker"
}, {
  "uid" : "c0ba304ddbb009c4",
  "name" : "Verify that First move to pending section than selct any slot time thanafter select any customer then click on Done with Remark button and click on quality issue button",
  "time" : {
    "start" : 1621166219420,
    "stop" : 1621166246893,
    "duration" : 27473
  },
  "status" : "passed",
  "severity" : "blocker"
}, {
  "uid" : "d776f8e3606d69e3",
  "name" : "Verify that First move to pending section than selct any slot time thanafter select any customer then click on Not Delivered button again click on our side button than click on route late button and again enter remark text than finally click on done button",
  "time" : {
    "start" : 1621166472033,
    "stop" : 1621166496837,
    "duration" : 24804
  },
  "status" : "passed",
  "severity" : "blocker"
}, {
  "uid" : "dfd14cb19319c6ff",
  "name" : "to validate that Other functionality",
  "time" : {
    "start" : 1621166839617,
    "stop" : 1621166873967,
    "duration" : 34350
  },
  "status" : "passed",
  "severity" : "blocker"
}, {
  "uid" : "c107ed210145a495",
  "name" : "verify that first click on drawer icon thanafter click on scan demand link",
  "time" : {
    "start" : 1621166038382,
    "stop" : 1621166050177,
    "duration" : 11795
  },
  "status" : "passed",
  "severity" : "blocker"
}, {
  "uid" : "544661b519127f6b",
  "name" : "to validate that paid by NEFT functionality",
  "time" : {
    "start" : 1621166694714,
    "stop" : 1621166724331,
    "duration" : 29617
  },
  "status" : "passed",
  "severity" : "blocker"
}, {
  "uid" : "623e8278d052bdef",
  "name" : "Verify that First move to pending section than selct any slot time thanafter select any customer then click on Not Delivered button again click on customer side button than click on address issue button and  again enter remark text than finally click on done button",
  "time" : {
    "start" : 1621166384190,
    "stop" : 1621166425803,
    "duration" : 41613
  },
  "status" : "passed",
  "severity" : "blocker"
}, {
  "uid" : "23269cd2dad9f237",
  "name" : "verify that first click on drawer icon thanafter click on payment link",
  "time" : {
    "start" : 1621166061279,
    "stop" : 1621166079424,
    "duration" : 18145
  },
  "status" : "passed",
  "severity" : "blocker"
}, {
  "uid" : "bf3679340a4dbf46",
  "name" : "to validate that Enter valid First contact Number",
  "time" : {
    "start" : 1621166119697,
    "stop" : 1621166141103,
    "duration" : 21406
  },
  "status" : "passed",
  "severity" : "blocker"
} ]