{
  "total" : 1,
  "items" : [ {
    "uid" : "edbb7b522d537f7ce26a6e1cda17ae7e",
    "name" : "Country Delight Delivery Boy App Test Automation Suite",
    "statistic" : {
      "failed" : 0,
      "broken" : 0,
      "skipped" : 0,
      "passed" : 23,
      "unknown" : 0,
      "total" : 23
    }
  } ]
}